^E:\GAMEPROJECT\TECS\TECS\ASPECT.CPP|E:\GAMEPROJECT\TECS\TECS\ENTITY.CPP|E:\GAMEPROJECT\TECS\TECS\MANAGERS\COMPONENTMANAGER.CPP|E:\GAMEPROJECT\TECS\TECS\MANAGERS\ENTITYMANAGER.CPP|E:\GAMEPROJECT\TECS\TECS\MANAGERS\GROUPMANAGER.CPP|E:\GAMEPROJECT\TECS\TECS\MANAGERS\TAGMANAGER.CPP|E:\GAMEPROJECT\TECS\TECS\SYSTEM.CPP|E:\GAMEPROJECT\TECS\TECS\UTILS\HELPER.CPP|E:\GAMEPROJECT\TECS\TECS\WORLD.CPP
E:\GAMEPROJECT\TECS\TECS\RELEASE\WORLD.OBJ
E:\GAMEPROJECT\TECS\TECS\RELEASE\HELPER.OBJ
E:\GAMEPROJECT\TECS\TECS\RELEASE\ENTITYMANAGER.OBJ
E:\GAMEPROJECT\TECS\TECS\RELEASE\ENTITY.OBJ
E:\GAMEPROJECT\TECS\TECS\RELEASE\SYSTEM.OBJ
E:\GAMEPROJECT\TECS\TECS\RELEASE\TAGMANAGER.OBJ
E:\GAMEPROJECT\TECS\TECS\RELEASE\GROUPMANAGER.OBJ
E:\GAMEPROJECT\TECS\TECS\RELEASE\COMPONENTMANAGER.OBJ
E:\GAMEPROJECT\TECS\TECS\RELEASE\ASPECT.OBJ
^E:\GAMEPROJECT\TECS\TECS\ASPECT.CPP
E:\GAMEPROJECT\TECS\TECS\RELEASE\VC120.PDB
^E:\GAMEPROJECT\TECS\TECS\MANAGERS\COMPONENTMANAGER.CPP
E:\GAMEPROJECT\TECS\TECS\RELEASE\VC120.PDB
^E:\GAMEPROJECT\TECS\TECS\MANAGERS\GROUPMANAGER.CPP
E:\GAMEPROJECT\TECS\TECS\RELEASE\VC120.PDB
^E:\GAMEPROJECT\TECS\TECS\MANAGERS\TAGMANAGER.CPP
E:\GAMEPROJECT\TECS\TECS\RELEASE\VC120.PDB
^E:\GAMEPROJECT\TECS\TECS\SYSTEM.CPP
E:\GAMEPROJECT\TECS\TECS\RELEASE\VC120.PDB
^E:\GAMEPROJECT\TECS\TECS\ENTITY.CPP
E:\GAMEPROJECT\TECS\TECS\RELEASE\VC120.PDB
^E:\GAMEPROJECT\TECS\TECS\MANAGERS\ENTITYMANAGER.CPP
E:\GAMEPROJECT\TECS\TECS\RELEASE\VC120.PDB
^E:\GAMEPROJECT\TECS\TECS\UTILS\HELPER.CPP
E:\GAMEPROJECT\TECS\TECS\RELEASE\VC120.PDB
^E:\GAMEPROJECT\TECS\TECS\WORLD.CPP
E:\GAMEPROJECT\TECS\TECS\RELEASE\VC120.PDB
