^E:\GAMEPROJECT\TECS\TECS\WORLD.CPP
E:\GAMEPROJECT\TECS\TECS\WORLD.H
D:\VISUAL STUDIO 2013\VC\INCLUDE\IOSTREAM
D:\VISUAL STUDIO 2013\VC\INCLUDE\ISTREAM
D:\VISUAL STUDIO 2013\VC\INCLUDE\OSTREAM
D:\VISUAL STUDIO 2013\VC\INCLUDE\IOS
D:\VISUAL STUDIO 2013\VC\INCLUDE\XLOCNUM
D:\VISUAL STUDIO 2013\VC\INCLUDE\CLIMITS
D:\VISUAL STUDIO 2013\VC\INCLUDE\YVALS.H
D:\VISUAL STUDIO 2013\VC\INCLUDE\XKEYCHECK.H
D:\VISUAL STUDIO 2013\VC\INCLUDE\CRTDEFS.H
D:\VISUAL STUDIO 2013\VC\INCLUDE\SAL.H
D:\VISUAL STUDIO 2013\VC\INCLUDE\CONCURRENCYSAL.H
D:\VISUAL STUDIO 2013\VC\INCLUDE\VADEFS.H
D:\VISUAL STUDIO 2013\VC\INCLUDE\USE_ANSI.H
D:\VISUAL STUDIO 2013\VC\INCLUDE\LIMITS.H
D:\VISUAL STUDIO 2013\VC\INCLUDE\CMATH
D:\VISUAL STUDIO 2013\VC\INCLUDE\MATH.H
D:\VISUAL STUDIO 2013\VC\INCLUDE\XTGMATH.H
D:\VISUAL STUDIO 2013\VC\INCLUDE\XTR1COMMON
D:\VISUAL STUDIO 2013\VC\INCLUDE\CSTDIO
D:\VISUAL STUDIO 2013\VC\INCLUDE\STDIO.H
D:\VISUAL STUDIO 2013\VC\INCLUDE\SWPRINTF.INL
D:\VISUAL STUDIO 2013\VC\INCLUDE\CSTDLIB
D:\VISUAL STUDIO 2013\VC\INCLUDE\STDLIB.H
D:\VISUAL STUDIO 2013\VC\INCLUDE\STREAMBUF
D:\VISUAL STUDIO 2013\VC\INCLUDE\XIOSBASE
D:\VISUAL STUDIO 2013\VC\INCLUDE\XLOCALE
D:\VISUAL STUDIO 2013\VC\INCLUDE\CSTRING
D:\VISUAL STUDIO 2013\VC\INCLUDE\STRING.H
D:\VISUAL STUDIO 2013\VC\INCLUDE\STDEXCEPT
D:\VISUAL STUDIO 2013\VC\INCLUDE\EXCEPTION
D:\VISUAL STUDIO 2013\VC\INCLUDE\XSTDDEF
D:\VISUAL STUDIO 2013\VC\INCLUDE\CSTDDEF
D:\VISUAL STUDIO 2013\VC\INCLUDE\STDDEF.H
D:\VISUAL STUDIO 2013\VC\INCLUDE\INITIALIZER_LIST
D:\VISUAL STUDIO 2013\VC\INCLUDE\EH.H
D:\VISUAL STUDIO 2013\VC\INCLUDE\MALLOC.H
D:\VISUAL STUDIO 2013\VC\INCLUDE\XSTRING
D:\VISUAL STUDIO 2013\VC\INCLUDE\XMEMORY0
D:\VISUAL STUDIO 2013\VC\INCLUDE\LIMITS
D:\VISUAL STUDIO 2013\VC\INCLUDE\YMATH.H
D:\VISUAL STUDIO 2013\VC\INCLUDE\CFLOAT
D:\VISUAL STUDIO 2013\VC\INCLUDE\FLOAT.H
D:\VISUAL STUDIO 2013\VC\INCLUDE\CRTWRN.H
D:\VISUAL STUDIO 2013\VC\INCLUDE\CWCHAR
D:\VISUAL STUDIO 2013\VC\INCLUDE\WCHAR.H
D:\VISUAL STUDIO 2013\VC\INCLUDE\WTIME.INL
D:\VISUAL STUDIO 2013\VC\INCLUDE\NEW
D:\VISUAL STUDIO 2013\VC\INCLUDE\XUTILITY
D:\VISUAL STUDIO 2013\VC\INCLUDE\UTILITY
D:\VISUAL STUDIO 2013\VC\INCLUDE\IOSFWD
D:\VISUAL STUDIO 2013\VC\INCLUDE\CRTDBG.H
D:\VISUAL STUDIO 2013\VC\INCLUDE\TYPE_TRAITS
D:\VISUAL STUDIO 2013\VC\INCLUDE\XREFWRAP
D:\VISUAL STUDIO 2013\VC\INCLUDE\XATOMIC0.H
D:\VISUAL STUDIO 2013\VC\INCLUDE\INTRIN.H
D:\VISUAL STUDIO 2013\VC\INCLUDE\SETJMP.H
D:\VISUAL STUDIO 2013\VC\INCLUDE\IMMINTRIN.H
D:\VISUAL STUDIO 2013\VC\INCLUDE\WMMINTRIN.H
D:\VISUAL STUDIO 2013\VC\INCLUDE\NMMINTRIN.H
D:\VISUAL STUDIO 2013\VC\INCLUDE\SMMINTRIN.H
D:\VISUAL STUDIO 2013\VC\INCLUDE\TMMINTRIN.H
D:\VISUAL STUDIO 2013\VC\INCLUDE\PMMINTRIN.H
D:\VISUAL STUDIO 2013\VC\INCLUDE\EMMINTRIN.H
D:\VISUAL STUDIO 2013\VC\INCLUDE\XMMINTRIN.H
D:\VISUAL STUDIO 2013\VC\INCLUDE\MMINTRIN.H
D:\VISUAL STUDIO 2013\VC\INCLUDE\AMMINTRIN.H
D:\VISUAL STUDIO 2013\VC\INCLUDE\MM3DNOW.H
D:\VISUAL STUDIO 2013\VC\INCLUDE\TYPEINFO
D:\VISUAL STUDIO 2013\VC\INCLUDE\XLOCINFO
D:\VISUAL STUDIO 2013\VC\INCLUDE\XLOCINFO.H
D:\VISUAL STUDIO 2013\VC\INCLUDE\CTYPE.H
D:\VISUAL STUDIO 2013\VC\INCLUDE\LOCALE.H
D:\VISUAL STUDIO 2013\VC\INCLUDE\XDEBUG
D:\VISUAL STUDIO 2013\VC\INCLUDE\XMEMORY
D:\VISUAL STUDIO 2013\VC\INCLUDE\XFACET
D:\VISUAL STUDIO 2013\VC\INCLUDE\SYSTEM_ERROR
D:\VISUAL STUDIO 2013\VC\INCLUDE\CERRNO
D:\VISUAL STUDIO 2013\VC\INCLUDE\ERRNO.H
D:\VISUAL STUDIO 2013\VC\INCLUDE\SHARE.H
E:\GAMEPROJECT\TECS\TECS\MANAGERS\ENTITYMANAGER.H
E:\GAMEPROJECT\TECS\TECS\MANAGERS\MANAGER.H
E:\GAMEPROJECT\TECS\TECS\ENTITYOBSERVER.H
D:\VISUAL STUDIO 2013\VC\INCLUDE\VECTOR
D:\VISUAL STUDIO 2013\VC\INCLUDE\UNORDERED_SET
D:\VISUAL STUDIO 2013\VC\INCLUDE\XHASH
D:\VISUAL STUDIO 2013\VC\INCLUDE\LIST
D:\VISUAL STUDIO 2013\VC\INCLUDE\MEMORY
D:\VISUAL STUDIO 2013\VC\INCLUDE\STDINT.H
E:\GAMEPROJECT\TECS\TECS\MANAGERS\COMPONENTMANAGER.H
E:\GAMEPROJECT\TECS\TECS\TYPES\TYPE.H
D:\VISUAL STUDIO 2013\VC\INCLUDE\UNORDERED_MAP
D:\VISUAL STUDIO 2013\VC\INCLUDE\TUPLE
D:\VISUAL STUDIO 2013\VC\INCLUDE\TYPEINDEX
D:\VISUAL STUDIO 2013\VC\INCLUDE\FUNCTIONAL
D:\VISUAL STUDIO 2013\VC\INCLUDE\XFUNCTIONAL
E:\GAMEPROJECT\TECS\TECS\COMPONENT.H
E:\GAMEPROJECT\TECS\TECS\UTILS\POOLER.HPP
E:\GAMEPROJECT\TECS\TECS\UTILS\POOL.HPP
D:\VISUAL STUDIO 2013\VC\INCLUDE\ALGORITHM
E:\GAMEPROJECT\TECS\TECS\MANAGERS\TAGMANAGER.H
D:\VISUAL STUDIO 2013\VC\INCLUDE\STRING
D:\VISUAL STUDIO 2013\VC\INCLUDE\ITERATOR
E:\GAMEPROJECT\TECS\TECS\MANAGERS\GROUPMANAGER.H
E:\GAMEPROJECT\TECS\TECS\SYSTEM.H
E:\GAMEPROJECT\TECS\TECS\ASPECT.H
E:\GAMEPROJECT\TECS\TECS\UTILS\INDEXEDBITSET.H
E:\GAMEPROJECT\TECS\TECS\COMPONENTMAPPER.H
E:\GAMEPROJECT\TECS\TECS\ENTITY.H
^E:\GAMEPROJECT\TECS\TECS\MANAGERS\ENTITYMANAGER.CPP
E:\GAMEPROJECT\TECS\TECS\MANAGERS\ENTITYMANAGER.H
E:\GAMEPROJECT\TECS\TECS\MANAGERS\MANAGER.H
E:\GAMEPROJECT\TECS\TECS\ENTITYOBSERVER.H
D:\VISUAL STUDIO 2013\VC\INCLUDE\VECTOR
D:\VISUAL STUDIO 2013\VC\INCLUDE\XMEMORY
D:\VISUAL STUDIO 2013\VC\INCLUDE\XMEMORY0
D:\VISUAL STUDIO 2013\VC\INCLUDE\CSTDLIB
D:\VISUAL STUDIO 2013\VC\INCLUDE\YVALS.H
D:\VISUAL STUDIO 2013\VC\INCLUDE\XKEYCHECK.H
D:\VISUAL STUDIO 2013\VC\INCLUDE\CRTDEFS.H
D:\VISUAL STUDIO 2013\VC\INCLUDE\SAL.H
D:\VISUAL STUDIO 2013\VC\INCLUDE\CONCURRENCYSAL.H
D:\VISUAL STUDIO 2013\VC\INCLUDE\VADEFS.H
D:\VISUAL STUDIO 2013\VC\INCLUDE\USE_ANSI.H
D:\VISUAL STUDIO 2013\VC\INCLUDE\STDLIB.H
D:\VISUAL STUDIO 2013\VC\INCLUDE\LIMITS.H
D:\VISUAL STUDIO 2013\VC\INCLUDE\LIMITS
D:\VISUAL STUDIO 2013\VC\INCLUDE\YMATH.H
D:\VISUAL STUDIO 2013\VC\INCLUDE\CFLOAT
D:\VISUAL STUDIO 2013\VC\INCLUDE\FLOAT.H
D:\VISUAL STUDIO 2013\VC\INCLUDE\CRTWRN.H
D:\VISUAL STUDIO 2013\VC\INCLUDE\CLIMITS
D:\VISUAL STUDIO 2013\VC\INCLUDE\CMATH
D:\VISUAL STUDIO 2013\VC\INCLUDE\MATH.H
D:\VISUAL STUDIO 2013\VC\INCLUDE\XTGMATH.H
D:\VISUAL STUDIO 2013\VC\INCLUDE\XTR1COMMON
D:\VISUAL STUDIO 2013\VC\INCLUDE\CWCHAR
D:\VISUAL STUDIO 2013\VC\INCLUDE\WCHAR.H
D:\VISUAL STUDIO 2013\VC\INCLUDE\SWPRINTF.INL
D:\VISUAL STUDIO 2013\VC\INCLUDE\WTIME.INL
D:\VISUAL STUDIO 2013\VC\INCLUDE\XSTDDEF
D:\VISUAL STUDIO 2013\VC\INCLUDE\CSTDDEF
D:\VISUAL STUDIO 2013\VC\INCLUDE\STDDEF.H
D:\VISUAL STUDIO 2013\VC\INCLUDE\INITIALIZER_LIST
D:\VISUAL STUDIO 2013\VC\INCLUDE\NEW
D:\VISUAL STUDIO 2013\VC\INCLUDE\EXCEPTION
D:\VISUAL STUDIO 2013\VC\INCLUDE\EH.H
D:\VISUAL STUDIO 2013\VC\INCLUDE\MALLOC.H
D:\VISUAL STUDIO 2013\VC\INCLUDE\STRING.H
D:\VISUAL STUDIO 2013\VC\INCLUDE\XUTILITY
D:\VISUAL STUDIO 2013\VC\INCLUDE\UTILITY
D:\VISUAL STUDIO 2013\VC\INCLUDE\IOSFWD
D:\VISUAL STUDIO 2013\VC\INCLUDE\CSTDIO
D:\VISUAL STUDIO 2013\VC\INCLUDE\STDIO.H
D:\VISUAL STUDIO 2013\VC\INCLUDE\CSTRING
D:\VISUAL STUDIO 2013\VC\INCLUDE\CRTDBG.H
D:\VISUAL STUDIO 2013\VC\INCLUDE\TYPE_TRAITS
D:\VISUAL STUDIO 2013\VC\INCLUDE\XREFWRAP
D:\VISUAL STUDIO 2013\VC\INCLUDE\XATOMIC0.H
D:\VISUAL STUDIO 2013\VC\INCLUDE\INTRIN.H
D:\VISUAL STUDIO 2013\VC\INCLUDE\SETJMP.H
D:\VISUAL STUDIO 2013\VC\INCLUDE\IMMINTRIN.H
D:\VISUAL STUDIO 2013\VC\INCLUDE\WMMINTRIN.H
D:\VISUAL STUDIO 2013\VC\INCLUDE\NMMINTRIN.H
D:\VISUAL STUDIO 2013\VC\INCLUDE\SMMINTRIN.H
D:\VISUAL STUDIO 2013\VC\INCLUDE\TMMINTRIN.H
D:\VISUAL STUDIO 2013\VC\INCLUDE\PMMINTRIN.H
D:\VISUAL STUDIO 2013\VC\INCLUDE\EMMINTRIN.H
D:\VISUAL STUDIO 2013\VC\INCLUDE\XMMINTRIN.H
D:\VISUAL STUDIO 2013\VC\INCLUDE\MMINTRIN.H
D:\VISUAL STUDIO 2013\VC\INCLUDE\AMMINTRIN.H
D:\VISUAL STUDIO 2013\VC\INCLUDE\MM3DNOW.H
D:\VISUAL STUDIO 2013\VC\INCLUDE\STDEXCEPT
D:\VISUAL STUDIO 2013\VC\INCLUDE\XSTRING
D:\VISUAL STUDIO 2013\VC\INCLUDE\UNORDERED_SET
D:\VISUAL STUDIO 2013\VC\INCLUDE\XHASH
D:\VISUAL STUDIO 2013\VC\INCLUDE\LIST
D:\VISUAL STUDIO 2013\VC\INCLUDE\MEMORY
D:\VISUAL STUDIO 2013\VC\INCLUDE\STDINT.H
D:\VISUAL STUDIO 2013\VC\INCLUDE\TYPEINFO
E:\GAMEPROJECT\TECS\TECS\ENTITY.H
E:\GAMEPROJECT\TECS\TECS\MANAGERS\COMPONENTMANAGER.H
E:\GAMEPROJECT\TECS\TECS\TYPES\TYPE.H
D:\VISUAL STUDIO 2013\VC\INCLUDE\UNORDERED_MAP
D:\VISUAL STUDIO 2013\VC\INCLUDE\TUPLE
D:\VISUAL STUDIO 2013\VC\INCLUDE\IOSTREAM
D:\VISUAL STUDIO 2013\VC\INCLUDE\ISTREAM
D:\VISUAL STUDIO 2013\VC\INCLUDE\OSTREAM
D:\VISUAL STUDIO 2013\VC\INCLUDE\IOS
D:\VISUAL STUDIO 2013\VC\INCLUDE\XLOCNUM
D:\VISUAL STUDIO 2013\VC\INCLUDE\STREAMBUF
D:\VISUAL STUDIO 2013\VC\INCLUDE\XIOSBASE
D:\VISUAL STUDIO 2013\VC\INCLUDE\XLOCALE
D:\VISUAL STUDIO 2013\VC\INCLUDE\XLOCINFO
D:\VISUAL STUDIO 2013\VC\INCLUDE\XLOCINFO.H
D:\VISUAL STUDIO 2013\VC\INCLUDE\CTYPE.H
D:\VISUAL STUDIO 2013\VC\INCLUDE\LOCALE.H
D:\VISUAL STUDIO 2013\VC\INCLUDE\XDEBUG
D:\VISUAL STUDIO 2013\VC\INCLUDE\XFACET
D:\VISUAL STUDIO 2013\VC\INCLUDE\SYSTEM_ERROR
D:\VISUAL STUDIO 2013\VC\INCLUDE\CERRNO
D:\VISUAL STUDIO 2013\VC\INCLUDE\ERRNO.H
D:\VISUAL STUDIO 2013\VC\INCLUDE\SHARE.H
D:\VISUAL STUDIO 2013\VC\INCLUDE\TYPEINDEX
D:\VISUAL STUDIO 2013\VC\INCLUDE\FUNCTIONAL
D:\VISUAL STUDIO 2013\VC\INCLUDE\XFUNCTIONAL
E:\GAMEPROJECT\TECS\TECS\COMPONENT.H
E:\GAMEPROJECT\TECS\TECS\UTILS\POOLER.HPP
E:\GAMEPROJECT\TECS\TECS\UTILS\POOL.HPP
D:\VISUAL STUDIO 2013\VC\INCLUDE\ALGORITHM
E:\GAMEPROJECT\TECS\TECS\UTILS\INDEXEDBITSET.H
D:\VISUAL STUDIO 2013\VC\INCLUDE\STRING
D:\VISUAL STUDIO 2013\VC\INCLUDE\ITERATOR
E:\GAMEPROJECT\TECS\TECS\WORLD.H
E:\GAMEPROJECT\TECS\TECS\MANAGERS\TAGMANAGER.H
E:\GAMEPROJECT\TECS\TECS\MANAGERS\GROUPMANAGER.H
E:\GAMEPROJECT\TECS\TECS\SYSTEM.H
E:\GAMEPROJECT\TECS\TECS\ASPECT.H
E:\GAMEPROJECT\TECS\TECS\COMPONENTMAPPER.H
^E:\GAMEPROJECT\TECS\TECS\ENTITY.CPP
E:\GAMEPROJECT\TECS\TECS\ENTITY.H
E:\GAMEPROJECT\TECS\TECS\MANAGERS\COMPONENTMANAGER.H
E:\GAMEPROJECT\TECS\TECS\MANAGERS\MANAGER.H
E:\GAMEPROJECT\TECS\TECS\ENTITYOBSERVER.H
E:\GAMEPROJECT\TECS\TECS\TYPES\TYPE.H
D:\VISUAL STUDIO 2013\VC\INCLUDE\UNORDERED_MAP
D:\VISUAL STUDIO 2013\VC\INCLUDE\XHASH
D:\VISUAL STUDIO 2013\VC\INCLUDE\CSTRING
D:\VISUAL STUDIO 2013\VC\INCLUDE\YVALS.H
D:\VISUAL STUDIO 2013\VC\INCLUDE\XKEYCHECK.H
D:\VISUAL STUDIO 2013\VC\INCLUDE\CRTDEFS.H
D:\VISUAL STUDIO 2013\VC\INCLUDE\SAL.H
D:\VISUAL STUDIO 2013\VC\INCLUDE\CONCURRENCYSAL.H
D:\VISUAL STUDIO 2013\VC\INCLUDE\VADEFS.H
D:\VISUAL STUDIO 2013\VC\INCLUDE\USE_ANSI.H
D:\VISUAL STUDIO 2013\VC\INCLUDE\STRING.H
D:\VISUAL STUDIO 2013\VC\INCLUDE\CWCHAR
D:\VISUAL STUDIO 2013\VC\INCLUDE\WCHAR.H
D:\VISUAL STUDIO 2013\VC\INCLUDE\SWPRINTF.INL
D:\VISUAL STUDIO 2013\VC\INCLUDE\WTIME.INL
D:\VISUAL STUDIO 2013\VC\INCLUDE\LIST
D:\VISUAL STUDIO 2013\VC\INCLUDE\XMEMORY
D:\VISUAL STUDIO 2013\VC\INCLUDE\XMEMORY0
D:\VISUAL STUDIO 2013\VC\INCLUDE\CSTDLIB
D:\VISUAL STUDIO 2013\VC\INCLUDE\STDLIB.H
D:\VISUAL STUDIO 2013\VC\INCLUDE\LIMITS.H
D:\VISUAL STUDIO 2013\VC\INCLUDE\LIMITS
D:\VISUAL STUDIO 2013\VC\INCLUDE\YMATH.H
D:\VISUAL STUDIO 2013\VC\INCLUDE\CFLOAT
D:\VISUAL STUDIO 2013\VC\INCLUDE\FLOAT.H
D:\VISUAL STUDIO 2013\VC\INCLUDE\CRTWRN.H
D:\VISUAL STUDIO 2013\VC\INCLUDE\CLIMITS
D:\VISUAL STUDIO 2013\VC\INCLUDE\CMATH
D:\VISUAL STUDIO 2013\VC\INCLUDE\MATH.H
D:\VISUAL STUDIO 2013\VC\INCLUDE\XTGMATH.H
D:\VISUAL STUDIO 2013\VC\INCLUDE\XTR1COMMON
D:\VISUAL STUDIO 2013\VC\INCLUDE\XSTDDEF
D:\VISUAL STUDIO 2013\VC\INCLUDE\CSTDDEF
D:\VISUAL STUDIO 2013\VC\INCLUDE\STDDEF.H
D:\VISUAL STUDIO 2013\VC\INCLUDE\INITIALIZER_LIST
D:\VISUAL STUDIO 2013\VC\INCLUDE\NEW
D:\VISUAL STUDIO 2013\VC\INCLUDE\EXCEPTION
D:\VISUAL STUDIO 2013\VC\INCLUDE\EH.H
D:\VISUAL STUDIO 2013\VC\INCLUDE\MALLOC.H
D:\VISUAL STUDIO 2013\VC\INCLUDE\XUTILITY
D:\VISUAL STUDIO 2013\VC\INCLUDE\UTILITY
D:\VISUAL STUDIO 2013\VC\INCLUDE\IOSFWD
D:\VISUAL STUDIO 2013\VC\INCLUDE\CSTDIO
D:\VISUAL STUDIO 2013\VC\INCLUDE\STDIO.H
D:\VISUAL STUDIO 2013\VC\INCLUDE\CRTDBG.H
D:\VISUAL STUDIO 2013\VC\INCLUDE\TYPE_TRAITS
D:\VISUAL STUDIO 2013\VC\INCLUDE\XREFWRAP
D:\VISUAL STUDIO 2013\VC\INCLUDE\XATOMIC0.H
D:\VISUAL STUDIO 2013\VC\INCLUDE\INTRIN.H
D:\VISUAL STUDIO 2013\VC\INCLUDE\SETJMP.H
D:\VISUAL STUDIO 2013\VC\INCLUDE\IMMINTRIN.H
D:\VISUAL STUDIO 2013\VC\INCLUDE\WMMINTRIN.H
D:\VISUAL STUDIO 2013\VC\INCLUDE\NMMINTRIN.H
D:\VISUAL STUDIO 2013\VC\INCLUDE\SMMINTRIN.H
D:\VISUAL STUDIO 2013\VC\INCLUDE\TMMINTRIN.H
D:\VISUAL STUDIO 2013\VC\INCLUDE\PMMINTRIN.H
D:\VISUAL STUDIO 2013\VC\INCLUDE\EMMINTRIN.H
D:\VISUAL STUDIO 2013\VC\INCLUDE\XMMINTRIN.H
D:\VISUAL STUDIO 2013\VC\INCLUDE\MMINTRIN.H
D:\VISUAL STUDIO 2013\VC\INCLUDE\AMMINTRIN.H
D:\VISUAL STUDIO 2013\VC\INCLUDE\MM3DNOW.H
D:\VISUAL STUDIO 2013\VC\INCLUDE\STDEXCEPT
D:\VISUAL STUDIO 2013\VC\INCLUDE\XSTRING
D:\VISUAL STUDIO 2013\VC\INCLUDE\VECTOR
D:\VISUAL STUDIO 2013\VC\INCLUDE\TUPLE
D:\VISUAL STUDIO 2013\VC\INCLUDE\IOSTREAM
D:\VISUAL STUDIO 2013\VC\INCLUDE\ISTREAM
D:\VISUAL STUDIO 2013\VC\INCLUDE\OSTREAM
D:\VISUAL STUDIO 2013\VC\INCLUDE\IOS
D:\VISUAL STUDIO 2013\VC\INCLUDE\XLOCNUM
D:\VISUAL STUDIO 2013\VC\INCLUDE\STREAMBUF
D:\VISUAL STUDIO 2013\VC\INCLUDE\XIOSBASE
D:\VISUAL STUDIO 2013\VC\INCLUDE\XLOCALE
D:\VISUAL STUDIO 2013\VC\INCLUDE\TYPEINFO
D:\VISUAL STUDIO 2013\VC\INCLUDE\XLOCINFO
D:\VISUAL STUDIO 2013\VC\INCLUDE\XLOCINFO.H
D:\VISUAL STUDIO 2013\VC\INCLUDE\CTYPE.H
D:\VISUAL STUDIO 2013\VC\INCLUDE\LOCALE.H
D:\VISUAL STUDIO 2013\VC\INCLUDE\XDEBUG
D:\VISUAL STUDIO 2013\VC\INCLUDE\XFACET
D:\VISUAL STUDIO 2013\VC\INCLUDE\SYSTEM_ERROR
D:\VISUAL STUDIO 2013\VC\INCLUDE\CERRNO
D:\VISUAL STUDIO 2013\VC\INCLUDE\ERRNO.H
D:\VISUAL STUDIO 2013\VC\INCLUDE\SHARE.H
D:\VISUAL STUDIO 2013\VC\INCLUDE\TYPEINDEX
D:\VISUAL STUDIO 2013\VC\INCLUDE\FUNCTIONAL
D:\VISUAL STUDIO 2013\VC\INCLUDE\XFUNCTIONAL
E:\GAMEPROJECT\TECS\TECS\COMPONENT.H
E:\GAMEPROJECT\TECS\TECS\UTILS\POOLER.HPP
E:\GAMEPROJECT\TECS\TECS\UTILS\POOL.HPP
D:\VISUAL STUDIO 2013\VC\INCLUDE\ALGORITHM
D:\VISUAL STUDIO 2013\VC\INCLUDE\MEMORY
D:\VISUAL STUDIO 2013\VC\INCLUDE\STDINT.H
E:\GAMEPROJECT\TECS\TECS\MANAGERS\ENTITYMANAGER.H
D:\VISUAL STUDIO 2013\VC\INCLUDE\UNORDERED_SET
E:\GAMEPROJECT\TECS\TECS\UTILS\INDEXEDBITSET.H
D:\VISUAL STUDIO 2013\VC\INCLUDE\STRING
D:\VISUAL STUDIO 2013\VC\INCLUDE\ITERATOR
E:\GAMEPROJECT\TECS\TECS\WORLD.H
E:\GAMEPROJECT\TECS\TECS\MANAGERS\TAGMANAGER.H
E:\GAMEPROJECT\TECS\TECS\MANAGERS\GROUPMANAGER.H
E:\GAMEPROJECT\TECS\TECS\SYSTEM.H
E:\GAMEPROJECT\TECS\TECS\ASPECT.H
E:\GAMEPROJECT\TECS\TECS\COMPONENTMAPPER.H
^E:\GAMEPROJECT\TECS\TECS\SYSTEM.CPP
E:\GAMEPROJECT\TECS\TECS\SYSTEM.H
E:\GAMEPROJECT\TECS\TECS\ENTITYOBSERVER.H
D:\VISUAL STUDIO 2013\VC\INCLUDE\VECTOR
D:\VISUAL STUDIO 2013\VC\INCLUDE\XMEMORY
D:\VISUAL STUDIO 2013\VC\INCLUDE\XMEMORY0
D:\VISUAL STUDIO 2013\VC\INCLUDE\CSTDLIB
D:\VISUAL STUDIO 2013\VC\INCLUDE\YVALS.H
D:\VISUAL STUDIO 2013\VC\INCLUDE\XKEYCHECK.H
D:\VISUAL STUDIO 2013\VC\INCLUDE\CRTDEFS.H
D:\VISUAL STUDIO 2013\VC\INCLUDE\SAL.H
D:\VISUAL STUDIO 2013\VC\INCLUDE\CONCURRENCYSAL.H
D:\VISUAL STUDIO 2013\VC\INCLUDE\VADEFS.H
D:\VISUAL STUDIO 2013\VC\INCLUDE\USE_ANSI.H
D:\VISUAL STUDIO 2013\VC\INCLUDE\STDLIB.H
D:\VISUAL STUDIO 2013\VC\INCLUDE\LIMITS.H
D:\VISUAL STUDIO 2013\VC\INCLUDE\LIMITS
D:\VISUAL STUDIO 2013\VC\INCLUDE\YMATH.H
D:\VISUAL STUDIO 2013\VC\INCLUDE\CFLOAT
D:\VISUAL STUDIO 2013\VC\INCLUDE\FLOAT.H
D:\VISUAL STUDIO 2013\VC\INCLUDE\CRTWRN.H
D:\VISUAL STUDIO 2013\VC\INCLUDE\CLIMITS
D:\VISUAL STUDIO 2013\VC\INCLUDE\CMATH
D:\VISUAL STUDIO 2013\VC\INCLUDE\MATH.H
D:\VISUAL STUDIO 2013\VC\INCLUDE\XTGMATH.H
D:\VISUAL STUDIO 2013\VC\INCLUDE\XTR1COMMON
D:\VISUAL STUDIO 2013\VC\INCLUDE\CWCHAR
D:\VISUAL STUDIO 2013\VC\INCLUDE\WCHAR.H
D:\VISUAL STUDIO 2013\VC\INCLUDE\SWPRINTF.INL
D:\VISUAL STUDIO 2013\VC\INCLUDE\WTIME.INL
D:\VISUAL STUDIO 2013\VC\INCLUDE\XSTDDEF
D:\VISUAL STUDIO 2013\VC\INCLUDE\CSTDDEF
D:\VISUAL STUDIO 2013\VC\INCLUDE\STDDEF.H
D:\VISUAL STUDIO 2013\VC\INCLUDE\INITIALIZER_LIST
D:\VISUAL STUDIO 2013\VC\INCLUDE\NEW
D:\VISUAL STUDIO 2013\VC\INCLUDE\EXCEPTION
D:\VISUAL STUDIO 2013\VC\INCLUDE\EH.H
D:\VISUAL STUDIO 2013\VC\INCLUDE\MALLOC.H
D:\VISUAL STUDIO 2013\VC\INCLUDE\STRING.H
D:\VISUAL STUDIO 2013\VC\INCLUDE\XUTILITY
D:\VISUAL STUDIO 2013\VC\INCLUDE\UTILITY
D:\VISUAL STUDIO 2013\VC\INCLUDE\IOSFWD
D:\VISUAL STUDIO 2013\VC\INCLUDE\CSTDIO
D:\VISUAL STUDIO 2013\VC\INCLUDE\STDIO.H
D:\VISUAL STUDIO 2013\VC\INCLUDE\CSTRING
D:\VISUAL STUDIO 2013\VC\INCLUDE\CRTDBG.H
D:\VISUAL STUDIO 2013\VC\INCLUDE\TYPE_TRAITS
D:\VISUAL STUDIO 2013\VC\INCLUDE\XREFWRAP
D:\VISUAL STUDIO 2013\VC\INCLUDE\XATOMIC0.H
D:\VISUAL STUDIO 2013\VC\INCLUDE\INTRIN.H
D:\VISUAL STUDIO 2013\VC\INCLUDE\SETJMP.H
D:\VISUAL STUDIO 2013\VC\INCLUDE\IMMINTRIN.H
D:\VISUAL STUDIO 2013\VC\INCLUDE\WMMINTRIN.H
D:\VISUAL STUDIO 2013\VC\INCLUDE\NMMINTRIN.H
D:\VISUAL STUDIO 2013\VC\INCLUDE\SMMINTRIN.H
D:\VISUAL STUDIO 2013\VC\INCLUDE\TMMINTRIN.H
D:\VISUAL STUDIO 2013\VC\INCLUDE\PMMINTRIN.H
D:\VISUAL STUDIO 2013\VC\INCLUDE\EMMINTRIN.H
D:\VISUAL STUDIO 2013\VC\INCLUDE\XMMINTRIN.H
D:\VISUAL STUDIO 2013\VC\INCLUDE\MMINTRIN.H
D:\VISUAL STUDIO 2013\VC\INCLUDE\AMMINTRIN.H
D:\VISUAL STUDIO 2013\VC\INCLUDE\MM3DNOW.H
D:\VISUAL STUDIO 2013\VC\INCLUDE\STDEXCEPT
D:\VISUAL STUDIO 2013\VC\INCLUDE\XSTRING
D:\VISUAL STUDIO 2013\VC\INCLUDE\MEMORY
D:\VISUAL STUDIO 2013\VC\INCLUDE\STDINT.H
D:\VISUAL STUDIO 2013\VC\INCLUDE\TYPEINFO
E:\GAMEPROJECT\TECS\TECS\ASPECT.H
E:\GAMEPROJECT\TECS\TECS\UTILS\INDEXEDBITSET.H
D:\VISUAL STUDIO 2013\VC\INCLUDE\UNORDERED_MAP
D:\VISUAL STUDIO 2013\VC\INCLUDE\XHASH
D:\VISUAL STUDIO 2013\VC\INCLUDE\LIST
D:\VISUAL STUDIO 2013\VC\INCLUDE\TUPLE
E:\GAMEPROJECT\TECS\TECS\TYPES\TYPE.H
D:\VISUAL STUDIO 2013\VC\INCLUDE\IOSTREAM
D:\VISUAL STUDIO 2013\VC\INCLUDE\ISTREAM
D:\VISUAL STUDIO 2013\VC\INCLUDE\OSTREAM
D:\VISUAL STUDIO 2013\VC\INCLUDE\IOS
D:\VISUAL STUDIO 2013\VC\INCLUDE\XLOCNUM
D:\VISUAL STUDIO 2013\VC\INCLUDE\STREAMBUF
D:\VISUAL STUDIO 2013\VC\INCLUDE\XIOSBASE
D:\VISUAL STUDIO 2013\VC\INCLUDE\XLOCALE
D:\VISUAL STUDIO 2013\VC\INCLUDE\XLOCINFO
D:\VISUAL STUDIO 2013\VC\INCLUDE\XLOCINFO.H
D:\VISUAL STUDIO 2013\VC\INCLUDE\CTYPE.H
D:\VISUAL STUDIO 2013\VC\INCLUDE\LOCALE.H
D:\VISUAL STUDIO 2013\VC\INCLUDE\XDEBUG
D:\VISUAL STUDIO 2013\VC\INCLUDE\XFACET
D:\VISUAL STUDIO 2013\VC\INCLUDE\SYSTEM_ERROR
D:\VISUAL STUDIO 2013\VC\INCLUDE\CERRNO
D:\VISUAL STUDIO 2013\VC\INCLUDE\ERRNO.H
D:\VISUAL STUDIO 2013\VC\INCLUDE\SHARE.H
D:\VISUAL STUDIO 2013\VC\INCLUDE\TYPEINDEX
D:\VISUAL STUDIO 2013\VC\INCLUDE\FUNCTIONAL
D:\VISUAL STUDIO 2013\VC\INCLUDE\XFUNCTIONAL
E:\GAMEPROJECT\TECS\TECS\COMPONENT.H
E:\GAMEPROJECT\TECS\TECS\ENTITY.H
E:\GAMEPROJECT\TECS\TECS\MANAGERS\COMPONENTMANAGER.H
E:\GAMEPROJECT\TECS\TECS\MANAGERS\MANAGER.H
E:\GAMEPROJECT\TECS\TECS\UTILS\POOLER.HPP
E:\GAMEPROJECT\TECS\TECS\UTILS\POOL.HPP
D:\VISUAL STUDIO 2013\VC\INCLUDE\ALGORITHM
E:\GAMEPROJECT\TECS\TECS\MANAGERS\ENTITYMANAGER.H
D:\VISUAL STUDIO 2013\VC\INCLUDE\UNORDERED_SET
D:\VISUAL STUDIO 2013\VC\INCLUDE\STRING
D:\VISUAL STUDIO 2013\VC\INCLUDE\ITERATOR
E:\GAMEPROJECT\TECS\TECS\WORLD.H
E:\GAMEPROJECT\TECS\TECS\MANAGERS\TAGMANAGER.H
E:\GAMEPROJECT\TECS\TECS\MANAGERS\GROUPMANAGER.H
E:\GAMEPROJECT\TECS\TECS\COMPONENTMAPPER.H
^E:\GAMEPROJECT\TECS\TECS\MANAGERS\TAGMANAGER.CPP
E:\GAMEPROJECT\TECS\TECS\MANAGERS\TAGMANAGER.H
E:\GAMEPROJECT\TECS\TECS\MANAGERS\MANAGER.H
E:\GAMEPROJECT\TECS\TECS\ENTITYOBSERVER.H
D:\VISUAL STUDIO 2013\VC\INCLUDE\UNORDERED_MAP
D:\VISUAL STUDIO 2013\VC\INCLUDE\XHASH
D:\VISUAL STUDIO 2013\VC\INCLUDE\CSTRING
D:\VISUAL STUDIO 2013\VC\INCLUDE\YVALS.H
D:\VISUAL STUDIO 2013\VC\INCLUDE\XKEYCHECK.H
D:\VISUAL STUDIO 2013\VC\INCLUDE\CRTDEFS.H
D:\VISUAL STUDIO 2013\VC\INCLUDE\SAL.H
D:\VISUAL STUDIO 2013\VC\INCLUDE\CONCURRENCYSAL.H
D:\VISUAL STUDIO 2013\VC\INCLUDE\VADEFS.H
D:\VISUAL STUDIO 2013\VC\INCLUDE\USE_ANSI.H
D:\VISUAL STUDIO 2013\VC\INCLUDE\STRING.H
D:\VISUAL STUDIO 2013\VC\INCLUDE\CWCHAR
D:\VISUAL STUDIO 2013\VC\INCLUDE\WCHAR.H
D:\VISUAL STUDIO 2013\VC\INCLUDE\SWPRINTF.INL
D:\VISUAL STUDIO 2013\VC\INCLUDE\WTIME.INL
D:\VISUAL STUDIO 2013\VC\INCLUDE\LIST
D:\VISUAL STUDIO 2013\VC\INCLUDE\XMEMORY
D:\VISUAL STUDIO 2013\VC\INCLUDE\XMEMORY0
D:\VISUAL STUDIO 2013\VC\INCLUDE\CSTDLIB
D:\VISUAL STUDIO 2013\VC\INCLUDE\STDLIB.H
D:\VISUAL STUDIO 2013\VC\INCLUDE\LIMITS.H
D:\VISUAL STUDIO 2013\VC\INCLUDE\LIMITS
D:\VISUAL STUDIO 2013\VC\INCLUDE\YMATH.H
D:\VISUAL STUDIO 2013\VC\INCLUDE\CFLOAT
D:\VISUAL STUDIO 2013\VC\INCLUDE\FLOAT.H
D:\VISUAL STUDIO 2013\VC\INCLUDE\CRTWRN.H
D:\VISUAL STUDIO 2013\VC\INCLUDE\CLIMITS
D:\VISUAL STUDIO 2013\VC\INCLUDE\CMATH
D:\VISUAL STUDIO 2013\VC\INCLUDE\MATH.H
D:\VISUAL STUDIO 2013\VC\INCLUDE\XTGMATH.H
D:\VISUAL STUDIO 2013\VC\INCLUDE\XTR1COMMON
D:\VISUAL STUDIO 2013\VC\INCLUDE\XSTDDEF
D:\VISUAL STUDIO 2013\VC\INCLUDE\CSTDDEF
D:\VISUAL STUDIO 2013\VC\INCLUDE\STDDEF.H
D:\VISUAL STUDIO 2013\VC\INCLUDE\INITIALIZER_LIST
D:\VISUAL STUDIO 2013\VC\INCLUDE\NEW
D:\VISUAL STUDIO 2013\VC\INCLUDE\EXCEPTION
D:\VISUAL STUDIO 2013\VC\INCLUDE\EH.H
D:\VISUAL STUDIO 2013\VC\INCLUDE\MALLOC.H
D:\VISUAL STUDIO 2013\VC\INCLUDE\XUTILITY
D:\VISUAL STUDIO 2013\VC\INCLUDE\UTILITY
D:\VISUAL STUDIO 2013\VC\INCLUDE\IOSFWD
D:\VISUAL STUDIO 2013\VC\INCLUDE\CSTDIO
D:\VISUAL STUDIO 2013\VC\INCLUDE\STDIO.H
D:\VISUAL STUDIO 2013\VC\INCLUDE\CRTDBG.H
D:\VISUAL STUDIO 2013\VC\INCLUDE\TYPE_TRAITS
D:\VISUAL STUDIO 2013\VC\INCLUDE\XREFWRAP
D:\VISUAL STUDIO 2013\VC\INCLUDE\XATOMIC0.H
D:\VISUAL STUDIO 2013\VC\INCLUDE\INTRIN.H
D:\VISUAL STUDIO 2013\VC\INCLUDE\SETJMP.H
D:\VISUAL STUDIO 2013\VC\INCLUDE\IMMINTRIN.H
D:\VISUAL STUDIO 2013\VC\INCLUDE\WMMINTRIN.H
D:\VISUAL STUDIO 2013\VC\INCLUDE\NMMINTRIN.H
D:\VISUAL STUDIO 2013\VC\INCLUDE\SMMINTRIN.H
D:\VISUAL STUDIO 2013\VC\INCLUDE\TMMINTRIN.H
D:\VISUAL STUDIO 2013\VC\INCLUDE\PMMINTRIN.H
D:\VISUAL STUDIO 2013\VC\INCLUDE\EMMINTRIN.H
D:\VISUAL STUDIO 2013\VC\INCLUDE\XMMINTRIN.H
D:\VISUAL STUDIO 2013\VC\INCLUDE\MMINTRIN.H
D:\VISUAL STUDIO 2013\VC\INCLUDE\AMMINTRIN.H
D:\VISUAL STUDIO 2013\VC\INCLUDE\MM3DNOW.H
D:\VISUAL STUDIO 2013\VC\INCLUDE\STDEXCEPT
D:\VISUAL STUDIO 2013\VC\INCLUDE\XSTRING
D:\VISUAL STUDIO 2013\VC\INCLUDE\VECTOR
D:\VISUAL STUDIO 2013\VC\INCLUDE\TUPLE
D:\VISUAL STUDIO 2013\VC\INCLUDE\STRING
D:\VISUAL STUDIO 2013\VC\INCLUDE\ITERATOR
D:\VISUAL STUDIO 2013\VC\INCLUDE\ISTREAM
D:\VISUAL STUDIO 2013\VC\INCLUDE\OSTREAM
D:\VISUAL STUDIO 2013\VC\INCLUDE\IOS
D:\VISUAL STUDIO 2013\VC\INCLUDE\XLOCNUM
D:\VISUAL STUDIO 2013\VC\INCLUDE\STREAMBUF
D:\VISUAL STUDIO 2013\VC\INCLUDE\XIOSBASE
D:\VISUAL STUDIO 2013\VC\INCLUDE\XLOCALE
D:\VISUAL STUDIO 2013\VC\INCLUDE\TYPEINFO
D:\VISUAL STUDIO 2013\VC\INCLUDE\XLOCINFO
D:\VISUAL STUDIO 2013\VC\INCLUDE\XLOCINFO.H
D:\VISUAL STUDIO 2013\VC\INCLUDE\CTYPE.H
D:\VISUAL STUDIO 2013\VC\INCLUDE\LOCALE.H
D:\VISUAL STUDIO 2013\VC\INCLUDE\XDEBUG
D:\VISUAL STUDIO 2013\VC\INCLUDE\XFACET
D:\VISUAL STUDIO 2013\VC\INCLUDE\SYSTEM_ERROR
D:\VISUAL STUDIO 2013\VC\INCLUDE\CERRNO
D:\VISUAL STUDIO 2013\VC\INCLUDE\ERRNO.H
D:\VISUAL STUDIO 2013\VC\INCLUDE\SHARE.H
D:\VISUAL STUDIO 2013\VC\INCLUDE\UNORDERED_SET
E:\GAMEPROJECT\TECS\TECS\ENTITY.H
E:\GAMEPROJECT\TECS\TECS\MANAGERS\COMPONENTMANAGER.H
E:\GAMEPROJECT\TECS\TECS\TYPES\TYPE.H
D:\VISUAL STUDIO 2013\VC\INCLUDE\IOSTREAM
D:\VISUAL STUDIO 2013\VC\INCLUDE\TYPEINDEX
D:\VISUAL STUDIO 2013\VC\INCLUDE\FUNCTIONAL
D:\VISUAL STUDIO 2013\VC\INCLUDE\XFUNCTIONAL
E:\GAMEPROJECT\TECS\TECS\COMPONENT.H
E:\GAMEPROJECT\TECS\TECS\UTILS\POOLER.HPP
E:\GAMEPROJECT\TECS\TECS\UTILS\POOL.HPP
D:\VISUAL STUDIO 2013\VC\INCLUDE\ALGORITHM
D:\VISUAL STUDIO 2013\VC\INCLUDE\MEMORY
D:\VISUAL STUDIO 2013\VC\INCLUDE\STDINT.H
E:\GAMEPROJECT\TECS\TECS\MANAGERS\ENTITYMANAGER.H
E:\GAMEPROJECT\TECS\TECS\UTILS\INDEXEDBITSET.H
^E:\GAMEPROJECT\TECS\TECS\MANAGERS\GROUPMANAGER.CPP
E:\GAMEPROJECT\TECS\TECS\MANAGERS\GROUPMANAGER.H
E:\GAMEPROJECT\TECS\TECS\MANAGERS\MANAGER.H
E:\GAMEPROJECT\TECS\TECS\ENTITYOBSERVER.H
D:\VISUAL STUDIO 2013\VC\INCLUDE\VECTOR
D:\VISUAL STUDIO 2013\VC\INCLUDE\XMEMORY
D:\VISUAL STUDIO 2013\VC\INCLUDE\XMEMORY0
D:\VISUAL STUDIO 2013\VC\INCLUDE\CSTDLIB
D:\VISUAL STUDIO 2013\VC\INCLUDE\YVALS.H
D:\VISUAL STUDIO 2013\VC\INCLUDE\XKEYCHECK.H
D:\VISUAL STUDIO 2013\VC\INCLUDE\CRTDEFS.H
D:\VISUAL STUDIO 2013\VC\INCLUDE\SAL.H
D:\VISUAL STUDIO 2013\VC\INCLUDE\CONCURRENCYSAL.H
D:\VISUAL STUDIO 2013\VC\INCLUDE\VADEFS.H
D:\VISUAL STUDIO 2013\VC\INCLUDE\USE_ANSI.H
D:\VISUAL STUDIO 2013\VC\INCLUDE\STDLIB.H
D:\VISUAL STUDIO 2013\VC\INCLUDE\LIMITS.H
D:\VISUAL STUDIO 2013\VC\INCLUDE\LIMITS
D:\VISUAL STUDIO 2013\VC\INCLUDE\YMATH.H
D:\VISUAL STUDIO 2013\VC\INCLUDE\CFLOAT
D:\VISUAL STUDIO 2013\VC\INCLUDE\FLOAT.H
D:\VISUAL STUDIO 2013\VC\INCLUDE\CRTWRN.H
D:\VISUAL STUDIO 2013\VC\INCLUDE\CLIMITS
D:\VISUAL STUDIO 2013\VC\INCLUDE\CMATH
D:\VISUAL STUDIO 2013\VC\INCLUDE\MATH.H
D:\VISUAL STUDIO 2013\VC\INCLUDE\XTGMATH.H
D:\VISUAL STUDIO 2013\VC\INCLUDE\XTR1COMMON
D:\VISUAL STUDIO 2013\VC\INCLUDE\CWCHAR
D:\VISUAL STUDIO 2013\VC\INCLUDE\WCHAR.H
D:\VISUAL STUDIO 2013\VC\INCLUDE\SWPRINTF.INL
D:\VISUAL STUDIO 2013\VC\INCLUDE\WTIME.INL
D:\VISUAL STUDIO 2013\VC\INCLUDE\XSTDDEF
D:\VISUAL STUDIO 2013\VC\INCLUDE\CSTDDEF
D:\VISUAL STUDIO 2013\VC\INCLUDE\STDDEF.H
D:\VISUAL STUDIO 2013\VC\INCLUDE\INITIALIZER_LIST
D:\VISUAL STUDIO 2013\VC\INCLUDE\NEW
D:\VISUAL STUDIO 2013\VC\INCLUDE\EXCEPTION
D:\VISUAL STUDIO 2013\VC\INCLUDE\EH.H
D:\VISUAL STUDIO 2013\VC\INCLUDE\MALLOC.H
D:\VISUAL STUDIO 2013\VC\INCLUDE\STRING.H
D:\VISUAL STUDIO 2013\VC\INCLUDE\XUTILITY
D:\VISUAL STUDIO 2013\VC\INCLUDE\UTILITY
D:\VISUAL STUDIO 2013\VC\INCLUDE\IOSFWD
D:\VISUAL STUDIO 2013\VC\INCLUDE\CSTDIO
D:\VISUAL STUDIO 2013\VC\INCLUDE\STDIO.H
D:\VISUAL STUDIO 2013\VC\INCLUDE\CSTRING
D:\VISUAL STUDIO 2013\VC\INCLUDE\CRTDBG.H
D:\VISUAL STUDIO 2013\VC\INCLUDE\TYPE_TRAITS
D:\VISUAL STUDIO 2013\VC\INCLUDE\XREFWRAP
D:\VISUAL STUDIO 2013\VC\INCLUDE\XATOMIC0.H
D:\VISUAL STUDIO 2013\VC\INCLUDE\INTRIN.H
D:\VISUAL STUDIO 2013\VC\INCLUDE\SETJMP.H
D:\VISUAL STUDIO 2013\VC\INCLUDE\IMMINTRIN.H
D:\VISUAL STUDIO 2013\VC\INCLUDE\WMMINTRIN.H
D:\VISUAL STUDIO 2013\VC\INCLUDE\NMMINTRIN.H
D:\VISUAL STUDIO 2013\VC\INCLUDE\SMMINTRIN.H
D:\VISUAL STUDIO 2013\VC\INCLUDE\TMMINTRIN.H
D:\VISUAL STUDIO 2013\VC\INCLUDE\PMMINTRIN.H
D:\VISUAL STUDIO 2013\VC\INCLUDE\EMMINTRIN.H
D:\VISUAL STUDIO 2013\VC\INCLUDE\XMMINTRIN.H
D:\VISUAL STUDIO 2013\VC\INCLUDE\MMINTRIN.H
D:\VISUAL STUDIO 2013\VC\INCLUDE\AMMINTRIN.H
D:\VISUAL STUDIO 2013\VC\INCLUDE\MM3DNOW.H
D:\VISUAL STUDIO 2013\VC\INCLUDE\STDEXCEPT
D:\VISUAL STUDIO 2013\VC\INCLUDE\XSTRING
D:\VISUAL STUDIO 2013\VC\INCLUDE\UNORDERED_MAP
D:\VISUAL STUDIO 2013\VC\INCLUDE\XHASH
D:\VISUAL STUDIO 2013\VC\INCLUDE\LIST
D:\VISUAL STUDIO 2013\VC\INCLUDE\TUPLE
D:\VISUAL STUDIO 2013\VC\INCLUDE\STRING
D:\VISUAL STUDIO 2013\VC\INCLUDE\ITERATOR
D:\VISUAL STUDIO 2013\VC\INCLUDE\ISTREAM
D:\VISUAL STUDIO 2013\VC\INCLUDE\OSTREAM
D:\VISUAL STUDIO 2013\VC\INCLUDE\IOS
D:\VISUAL STUDIO 2013\VC\INCLUDE\XLOCNUM
D:\VISUAL STUDIO 2013\VC\INCLUDE\STREAMBUF
D:\VISUAL STUDIO 2013\VC\INCLUDE\XIOSBASE
D:\VISUAL STUDIO 2013\VC\INCLUDE\XLOCALE
D:\VISUAL STUDIO 2013\VC\INCLUDE\TYPEINFO
D:\VISUAL STUDIO 2013\VC\INCLUDE\XLOCINFO
D:\VISUAL STUDIO 2013\VC\INCLUDE\XLOCINFO.H
D:\VISUAL STUDIO 2013\VC\INCLUDE\CTYPE.H
D:\VISUAL STUDIO 2013\VC\INCLUDE\LOCALE.H
D:\VISUAL STUDIO 2013\VC\INCLUDE\XDEBUG
D:\VISUAL STUDIO 2013\VC\INCLUDE\XFACET
D:\VISUAL STUDIO 2013\VC\INCLUDE\SYSTEM_ERROR
D:\VISUAL STUDIO 2013\VC\INCLUDE\CERRNO
D:\VISUAL STUDIO 2013\VC\INCLUDE\ERRNO.H
D:\VISUAL STUDIO 2013\VC\INCLUDE\SHARE.H
E:\GAMEPROJECT\TECS\TECS\ENTITY.H
E:\GAMEPROJECT\TECS\TECS\MANAGERS\COMPONENTMANAGER.H
E:\GAMEPROJECT\TECS\TECS\TYPES\TYPE.H
D:\VISUAL STUDIO 2013\VC\INCLUDE\IOSTREAM
D:\VISUAL STUDIO 2013\VC\INCLUDE\TYPEINDEX
D:\VISUAL STUDIO 2013\VC\INCLUDE\FUNCTIONAL
D:\VISUAL STUDIO 2013\VC\INCLUDE\XFUNCTIONAL
E:\GAMEPROJECT\TECS\TECS\COMPONENT.H
E:\GAMEPROJECT\TECS\TECS\UTILS\POOLER.HPP
E:\GAMEPROJECT\TECS\TECS\UTILS\POOL.HPP
D:\VISUAL STUDIO 2013\VC\INCLUDE\ALGORITHM
D:\VISUAL STUDIO 2013\VC\INCLUDE\MEMORY
D:\VISUAL STUDIO 2013\VC\INCLUDE\STDINT.H
E:\GAMEPROJECT\TECS\TECS\MANAGERS\ENTITYMANAGER.H
D:\VISUAL STUDIO 2013\VC\INCLUDE\UNORDERED_SET
E:\GAMEPROJECT\TECS\TECS\UTILS\INDEXEDBITSET.H
^E:\GAMEPROJECT\TECS\TECS\MANAGERS\COMPONENTMANAGER.CPP
E:\GAMEPROJECT\TECS\TECS\MANAGERS\COMPONENTMANAGER.H
E:\GAMEPROJECT\TECS\TECS\MANAGERS\MANAGER.H
E:\GAMEPROJECT\TECS\TECS\ENTITYOBSERVER.H
E:\GAMEPROJECT\TECS\TECS\TYPES\TYPE.H
D:\VISUAL STUDIO 2013\VC\INCLUDE\UNORDERED_MAP
D:\VISUAL STUDIO 2013\VC\INCLUDE\XHASH
D:\VISUAL STUDIO 2013\VC\INCLUDE\CSTRING
D:\VISUAL STUDIO 2013\VC\INCLUDE\YVALS.H
D:\VISUAL STUDIO 2013\VC\INCLUDE\XKEYCHECK.H
D:\VISUAL STUDIO 2013\VC\INCLUDE\CRTDEFS.H
D:\VISUAL STUDIO 2013\VC\INCLUDE\SAL.H
D:\VISUAL STUDIO 2013\VC\INCLUDE\CONCURRENCYSAL.H
D:\VISUAL STUDIO 2013\VC\INCLUDE\VADEFS.H
D:\VISUAL STUDIO 2013\VC\INCLUDE\USE_ANSI.H
D:\VISUAL STUDIO 2013\VC\INCLUDE\STRING.H
D:\VISUAL STUDIO 2013\VC\INCLUDE\CWCHAR
D:\VISUAL STUDIO 2013\VC\INCLUDE\WCHAR.H
D:\VISUAL STUDIO 2013\VC\INCLUDE\SWPRINTF.INL
D:\VISUAL STUDIO 2013\VC\INCLUDE\WTIME.INL
D:\VISUAL STUDIO 2013\VC\INCLUDE\LIST
D:\VISUAL STUDIO 2013\VC\INCLUDE\XMEMORY
D:\VISUAL STUDIO 2013\VC\INCLUDE\XMEMORY0
D:\VISUAL STUDIO 2013\VC\INCLUDE\CSTDLIB
D:\VISUAL STUDIO 2013\VC\INCLUDE\STDLIB.H
D:\VISUAL STUDIO 2013\VC\INCLUDE\LIMITS.H
D:\VISUAL STUDIO 2013\VC\INCLUDE\LIMITS
D:\VISUAL STUDIO 2013\VC\INCLUDE\YMATH.H
D:\VISUAL STUDIO 2013\VC\INCLUDE\CFLOAT
D:\VISUAL STUDIO 2013\VC\INCLUDE\FLOAT.H
D:\VISUAL STUDIO 2013\VC\INCLUDE\CRTWRN.H
D:\VISUAL STUDIO 2013\VC\INCLUDE\CLIMITS
D:\VISUAL STUDIO 2013\VC\INCLUDE\CMATH
D:\VISUAL STUDIO 2013\VC\INCLUDE\MATH.H
D:\VISUAL STUDIO 2013\VC\INCLUDE\XTGMATH.H
D:\VISUAL STUDIO 2013\VC\INCLUDE\XTR1COMMON
D:\VISUAL STUDIO 2013\VC\INCLUDE\XSTDDEF
D:\VISUAL STUDIO 2013\VC\INCLUDE\CSTDDEF
D:\VISUAL STUDIO 2013\VC\INCLUDE\STDDEF.H
D:\VISUAL STUDIO 2013\VC\INCLUDE\INITIALIZER_LIST
D:\VISUAL STUDIO 2013\VC\INCLUDE\NEW
D:\VISUAL STUDIO 2013\VC\INCLUDE\EXCEPTION
D:\VISUAL STUDIO 2013\VC\INCLUDE\EH.H
D:\VISUAL STUDIO 2013\VC\INCLUDE\MALLOC.H
D:\VISUAL STUDIO 2013\VC\INCLUDE\XUTILITY
D:\VISUAL STUDIO 2013\VC\INCLUDE\UTILITY
D:\VISUAL STUDIO 2013\VC\INCLUDE\IOSFWD
D:\VISUAL STUDIO 2013\VC\INCLUDE\CSTDIO
D:\VISUAL STUDIO 2013\VC\INCLUDE\STDIO.H
D:\VISUAL STUDIO 2013\VC\INCLUDE\CRTDBG.H
D:\VISUAL STUDIO 2013\VC\INCLUDE\TYPE_TRAITS
D:\VISUAL STUDIO 2013\VC\INCLUDE\XREFWRAP
D:\VISUAL STUDIO 2013\VC\INCLUDE\XATOMIC0.H
D:\VISUAL STUDIO 2013\VC\INCLUDE\INTRIN.H
D:\VISUAL STUDIO 2013\VC\INCLUDE\SETJMP.H
D:\VISUAL STUDIO 2013\VC\INCLUDE\IMMINTRIN.H
D:\VISUAL STUDIO 2013\VC\INCLUDE\WMMINTRIN.H
D:\VISUAL STUDIO 2013\VC\INCLUDE\NMMINTRIN.H
D:\VISUAL STUDIO 2013\VC\INCLUDE\SMMINTRIN.H
D:\VISUAL STUDIO 2013\VC\INCLUDE\TMMINTRIN.H
D:\VISUAL STUDIO 2013\VC\INCLUDE\PMMINTRIN.H
D:\VISUAL STUDIO 2013\VC\INCLUDE\EMMINTRIN.H
D:\VISUAL STUDIO 2013\VC\INCLUDE\XMMINTRIN.H
D:\VISUAL STUDIO 2013\VC\INCLUDE\MMINTRIN.H
D:\VISUAL STUDIO 2013\VC\INCLUDE\AMMINTRIN.H
D:\VISUAL STUDIO 2013\VC\INCLUDE\MM3DNOW.H
D:\VISUAL STUDIO 2013\VC\INCLUDE\STDEXCEPT
D:\VISUAL STUDIO 2013\VC\INCLUDE\XSTRING
D:\VISUAL STUDIO 2013\VC\INCLUDE\VECTOR
D:\VISUAL STUDIO 2013\VC\INCLUDE\TUPLE
D:\VISUAL STUDIO 2013\VC\INCLUDE\IOSTREAM
D:\VISUAL STUDIO 2013\VC\INCLUDE\ISTREAM
D:\VISUAL STUDIO 2013\VC\INCLUDE\OSTREAM
D:\VISUAL STUDIO 2013\VC\INCLUDE\IOS
D:\VISUAL STUDIO 2013\VC\INCLUDE\XLOCNUM
D:\VISUAL STUDIO 2013\VC\INCLUDE\STREAMBUF
D:\VISUAL STUDIO 2013\VC\INCLUDE\XIOSBASE
D:\VISUAL STUDIO 2013\VC\INCLUDE\XLOCALE
D:\VISUAL STUDIO 2013\VC\INCLUDE\TYPEINFO
D:\VISUAL STUDIO 2013\VC\INCLUDE\XLOCINFO
D:\VISUAL STUDIO 2013\VC\INCLUDE\XLOCINFO.H
D:\VISUAL STUDIO 2013\VC\INCLUDE\CTYPE.H
D:\VISUAL STUDIO 2013\VC\INCLUDE\LOCALE.H
D:\VISUAL STUDIO 2013\VC\INCLUDE\XDEBUG
D:\VISUAL STUDIO 2013\VC\INCLUDE\XFACET
D:\VISUAL STUDIO 2013\VC\INCLUDE\SYSTEM_ERROR
D:\VISUAL STUDIO 2013\VC\INCLUDE\CERRNO
D:\VISUAL STUDIO 2013\VC\INCLUDE\ERRNO.H
D:\VISUAL STUDIO 2013\VC\INCLUDE\SHARE.H
D:\VISUAL STUDIO 2013\VC\INCLUDE\TYPEINDEX
D:\VISUAL STUDIO 2013\VC\INCLUDE\FUNCTIONAL
D:\VISUAL STUDIO 2013\VC\INCLUDE\XFUNCTIONAL
E:\GAMEPROJECT\TECS\TECS\COMPONENT.H
E:\GAMEPROJECT\TECS\TECS\UTILS\POOLER.HPP
E:\GAMEPROJECT\TECS\TECS\UTILS\POOL.HPP
D:\VISUAL STUDIO 2013\VC\INCLUDE\ALGORITHM
D:\VISUAL STUDIO 2013\VC\INCLUDE\MEMORY
D:\VISUAL STUDIO 2013\VC\INCLUDE\STDINT.H
E:\GAMEPROJECT\TECS\TECS\ENTITY.H
E:\GAMEPROJECT\TECS\TECS\MANAGERS\ENTITYMANAGER.H
D:\VISUAL STUDIO 2013\VC\INCLUDE\UNORDERED_SET
E:\GAMEPROJECT\TECS\TECS\UTILS\INDEXEDBITSET.H
D:\VISUAL STUDIO 2013\VC\INCLUDE\STRING
D:\VISUAL STUDIO 2013\VC\INCLUDE\ITERATOR
E:\GAMEPROJECT\TECS\TECS\WORLD.H
E:\GAMEPROJECT\TECS\TECS\MANAGERS\TAGMANAGER.H
E:\GAMEPROJECT\TECS\TECS\MANAGERS\GROUPMANAGER.H
E:\GAMEPROJECT\TECS\TECS\SYSTEM.H
E:\GAMEPROJECT\TECS\TECS\ASPECT.H
E:\GAMEPROJECT\TECS\TECS\COMPONENTMAPPER.H
^E:\GAMEPROJECT\TECS\TECS\MAIN.CPP
E:\GAMEPROJECT\TECS\TECS\WORLD.H
D:\VISUAL STUDIO 2013\VC\INCLUDE\IOSTREAM
D:\VISUAL STUDIO 2013\VC\INCLUDE\ISTREAM
D:\VISUAL STUDIO 2013\VC\INCLUDE\OSTREAM
D:\VISUAL STUDIO 2013\VC\INCLUDE\IOS
D:\VISUAL STUDIO 2013\VC\INCLUDE\XLOCNUM
D:\VISUAL STUDIO 2013\VC\INCLUDE\CLIMITS
D:\VISUAL STUDIO 2013\VC\INCLUDE\YVALS.H
D:\VISUAL STUDIO 2013\VC\INCLUDE\XKEYCHECK.H
D:\VISUAL STUDIO 2013\VC\INCLUDE\CRTDEFS.H
D:\VISUAL STUDIO 2013\VC\INCLUDE\SAL.H
D:\VISUAL STUDIO 2013\VC\INCLUDE\CONCURRENCYSAL.H
D:\VISUAL STUDIO 2013\VC\INCLUDE\VADEFS.H
D:\VISUAL STUDIO 2013\VC\INCLUDE\USE_ANSI.H
D:\VISUAL STUDIO 2013\VC\INCLUDE\LIMITS.H
D:\VISUAL STUDIO 2013\VC\INCLUDE\CMATH
D:\VISUAL STUDIO 2013\VC\INCLUDE\MATH.H
D:\VISUAL STUDIO 2013\VC\INCLUDE\XTGMATH.H
D:\VISUAL STUDIO 2013\VC\INCLUDE\XTR1COMMON
D:\VISUAL STUDIO 2013\VC\INCLUDE\CSTDIO
D:\VISUAL STUDIO 2013\VC\INCLUDE\STDIO.H
D:\VISUAL STUDIO 2013\VC\INCLUDE\SWPRINTF.INL
D:\VISUAL STUDIO 2013\VC\INCLUDE\CSTDLIB
D:\VISUAL STUDIO 2013\VC\INCLUDE\STDLIB.H
D:\VISUAL STUDIO 2013\VC\INCLUDE\STREAMBUF
D:\VISUAL STUDIO 2013\VC\INCLUDE\XIOSBASE
D:\VISUAL STUDIO 2013\VC\INCLUDE\XLOCALE
D:\VISUAL STUDIO 2013\VC\INCLUDE\CSTRING
D:\VISUAL STUDIO 2013\VC\INCLUDE\STRING.H
D:\VISUAL STUDIO 2013\VC\INCLUDE\STDEXCEPT
D:\VISUAL STUDIO 2013\VC\INCLUDE\EXCEPTION
D:\VISUAL STUDIO 2013\VC\INCLUDE\XSTDDEF
D:\VISUAL STUDIO 2013\VC\INCLUDE\CSTDDEF
D:\VISUAL STUDIO 2013\VC\INCLUDE\STDDEF.H
D:\VISUAL STUDIO 2013\VC\INCLUDE\INITIALIZER_LIST
D:\VISUAL STUDIO 2013\VC\INCLUDE\EH.H
D:\VISUAL STUDIO 2013\VC\INCLUDE\MALLOC.H
D:\VISUAL STUDIO 2013\VC\INCLUDE\XSTRING
D:\VISUAL STUDIO 2013\VC\INCLUDE\XMEMORY0
D:\VISUAL STUDIO 2013\VC\INCLUDE\LIMITS
D:\VISUAL STUDIO 2013\VC\INCLUDE\YMATH.H
D:\VISUAL STUDIO 2013\VC\INCLUDE\CFLOAT
D:\VISUAL STUDIO 2013\VC\INCLUDE\FLOAT.H
D:\VISUAL STUDIO 2013\VC\INCLUDE\CRTWRN.H
D:\VISUAL STUDIO 2013\VC\INCLUDE\CWCHAR
D:\VISUAL STUDIO 2013\VC\INCLUDE\WCHAR.H
D:\VISUAL STUDIO 2013\VC\INCLUDE\WTIME.INL
D:\VISUAL STUDIO 2013\VC\INCLUDE\NEW
D:\VISUAL STUDIO 2013\VC\INCLUDE\XUTILITY
D:\VISUAL STUDIO 2013\VC\INCLUDE\UTILITY
D:\VISUAL STUDIO 2013\VC\INCLUDE\IOSFWD
D:\VISUAL STUDIO 2013\VC\INCLUDE\CRTDBG.H
D:\VISUAL STUDIO 2013\VC\INCLUDE\TYPE_TRAITS
D:\VISUAL STUDIO 2013\VC\INCLUDE\XREFWRAP
D:\VISUAL STUDIO 2013\VC\INCLUDE\XATOMIC0.H
D:\VISUAL STUDIO 2013\VC\INCLUDE\INTRIN.H
D:\VISUAL STUDIO 2013\VC\INCLUDE\SETJMP.H
D:\VISUAL STUDIO 2013\VC\INCLUDE\IMMINTRIN.H
D:\VISUAL STUDIO 2013\VC\INCLUDE\WMMINTRIN.H
D:\VISUAL STUDIO 2013\VC\INCLUDE\NMMINTRIN.H
D:\VISUAL STUDIO 2013\VC\INCLUDE\SMMINTRIN.H
D:\VISUAL STUDIO 2013\VC\INCLUDE\TMMINTRIN.H
D:\VISUAL STUDIO 2013\VC\INCLUDE\PMMINTRIN.H
D:\VISUAL STUDIO 2013\VC\INCLUDE\EMMINTRIN.H
D:\VISUAL STUDIO 2013\VC\INCLUDE\XMMINTRIN.H
D:\VISUAL STUDIO 2013\VC\INCLUDE\MMINTRIN.H
D:\VISUAL STUDIO 2013\VC\INCLUDE\AMMINTRIN.H
D:\VISUAL STUDIO 2013\VC\INCLUDE\MM3DNOW.H
D:\VISUAL STUDIO 2013\VC\INCLUDE\TYPEINFO
D:\VISUAL STUDIO 2013\VC\INCLUDE\XLOCINFO
D:\VISUAL STUDIO 2013\VC\INCLUDE\XLOCINFO.H
D:\VISUAL STUDIO 2013\VC\INCLUDE\CTYPE.H
D:\VISUAL STUDIO 2013\VC\INCLUDE\LOCALE.H
D:\VISUAL STUDIO 2013\VC\INCLUDE\XDEBUG
D:\VISUAL STUDIO 2013\VC\INCLUDE\XMEMORY
D:\VISUAL STUDIO 2013\VC\INCLUDE\XFACET
D:\VISUAL STUDIO 2013\VC\INCLUDE\SYSTEM_ERROR
D:\VISUAL STUDIO 2013\VC\INCLUDE\CERRNO
D:\VISUAL STUDIO 2013\VC\INCLUDE\ERRNO.H
D:\VISUAL STUDIO 2013\VC\INCLUDE\SHARE.H
E:\GAMEPROJECT\TECS\TECS\MANAGERS\ENTITYMANAGER.H
E:\GAMEPROJECT\TECS\TECS\MANAGERS\MANAGER.H
E:\GAMEPROJECT\TECS\TECS\ENTITYOBSERVER.H
D:\VISUAL STUDIO 2013\VC\INCLUDE\VECTOR
D:\VISUAL STUDIO 2013\VC\INCLUDE\UNORDERED_SET
D:\VISUAL STUDIO 2013\VC\INCLUDE\XHASH
D:\VISUAL STUDIO 2013\VC\INCLUDE\LIST
D:\VISUAL STUDIO 2013\VC\INCLUDE\MEMORY
D:\VISUAL STUDIO 2013\VC\INCLUDE\STDINT.H
E:\GAMEPROJECT\TECS\TECS\MANAGERS\COMPONENTMANAGER.H
E:\GAMEPROJECT\TECS\TECS\TYPES\TYPE.H
D:\VISUAL STUDIO 2013\VC\INCLUDE\UNORDERED_MAP
D:\VISUAL STUDIO 2013\VC\INCLUDE\TUPLE
D:\VISUAL STUDIO 2013\VC\INCLUDE\TYPEINDEX
D:\VISUAL STUDIO 2013\VC\INCLUDE\FUNCTIONAL
D:\VISUAL STUDIO 2013\VC\INCLUDE\XFUNCTIONAL
E:\GAMEPROJECT\TECS\TECS\COMPONENT.H
E:\GAMEPROJECT\TECS\TECS\UTILS\POOLER.HPP
E:\GAMEPROJECT\TECS\TECS\UTILS\POOL.HPP
D:\VISUAL STUDIO 2013\VC\INCLUDE\ALGORITHM
E:\GAMEPROJECT\TECS\TECS\MANAGERS\TAGMANAGER.H
D:\VISUAL STUDIO 2013\VC\INCLUDE\STRING
D:\VISUAL STUDIO 2013\VC\INCLUDE\ITERATOR
E:\GAMEPROJECT\TECS\TECS\MANAGERS\GROUPMANAGER.H
E:\GAMEPROJECT\TECS\TECS\SYSTEM.H
E:\GAMEPROJECT\TECS\TECS\ASPECT.H
E:\GAMEPROJECT\TECS\TECS\UTILS\INDEXEDBITSET.H
E:\GAMEPROJECT\TECS\TECS\COMPONENTMAPPER.H
E:\GAMEPROJECT\TECS\TECS\ENTITY.H
E:\GAMEPROJECT\TECS\TECS\COMPONENTS\POSITIONCOMPONENT.H
E:\GAMEPROJECT\TECS\TECS\SYSTEMS\POSITIONSYSTEM.H
^E:\GAMEPROJECT\TECS\TECS\COMPONENTMAPPER.CPP
E:\GAMEPROJECT\TECS\TECS\COMPONENTMAPPER.H
D:\VISUAL STUDIO 2013\VC\INCLUDE\VECTOR
D:\VISUAL STUDIO 2013\VC\INCLUDE\XMEMORY
D:\VISUAL STUDIO 2013\VC\INCLUDE\XMEMORY0
D:\VISUAL STUDIO 2013\VC\INCLUDE\CSTDLIB
D:\VISUAL STUDIO 2013\VC\INCLUDE\YVALS.H
D:\VISUAL STUDIO 2013\VC\INCLUDE\XKEYCHECK.H
D:\VISUAL STUDIO 2013\VC\INCLUDE\CRTDEFS.H
D:\VISUAL STUDIO 2013\VC\INCLUDE\SAL.H
D:\VISUAL STUDIO 2013\VC\INCLUDE\CONCURRENCYSAL.H
D:\VISUAL STUDIO 2013\VC\INCLUDE\VADEFS.H
D:\VISUAL STUDIO 2013\VC\INCLUDE\USE_ANSI.H
D:\VISUAL STUDIO 2013\VC\INCLUDE\STDLIB.H
D:\VISUAL STUDIO 2013\VC\INCLUDE\LIMITS.H
D:\VISUAL STUDIO 2013\VC\INCLUDE\LIMITS
D:\VISUAL STUDIO 2013\VC\INCLUDE\YMATH.H
D:\VISUAL STUDIO 2013\VC\INCLUDE\CFLOAT
D:\VISUAL STUDIO 2013\VC\INCLUDE\FLOAT.H
D:\VISUAL STUDIO 2013\VC\INCLUDE\CRTWRN.H
D:\VISUAL STUDIO 2013\VC\INCLUDE\CLIMITS
D:\VISUAL STUDIO 2013\VC\INCLUDE\CMATH
D:\VISUAL STUDIO 2013\VC\INCLUDE\MATH.H
D:\VISUAL STUDIO 2013\VC\INCLUDE\XTGMATH.H
D:\VISUAL STUDIO 2013\VC\INCLUDE\XTR1COMMON
D:\VISUAL STUDIO 2013\VC\INCLUDE\CWCHAR
D:\VISUAL STUDIO 2013\VC\INCLUDE\WCHAR.H
D:\VISUAL STUDIO 2013\VC\INCLUDE\SWPRINTF.INL
D:\VISUAL STUDIO 2013\VC\INCLUDE\WTIME.INL
D:\VISUAL STUDIO 2013\VC\INCLUDE\XSTDDEF
D:\VISUAL STUDIO 2013\VC\INCLUDE\CSTDDEF
D:\VISUAL STUDIO 2013\VC\INCLUDE\STDDEF.H
D:\VISUAL STUDIO 2013\VC\INCLUDE\INITIALIZER_LIST
D:\VISUAL STUDIO 2013\VC\INCLUDE\NEW
D:\VISUAL STUDIO 2013\VC\INCLUDE\EXCEPTION
D:\VISUAL STUDIO 2013\VC\INCLUDE\EH.H
D:\VISUAL STUDIO 2013\VC\INCLUDE\MALLOC.H
D:\VISUAL STUDIO 2013\VC\INCLUDE\STRING.H
D:\VISUAL STUDIO 2013\VC\INCLUDE\XUTILITY
D:\VISUAL STUDIO 2013\VC\INCLUDE\UTILITY
D:\VISUAL STUDIO 2013\VC\INCLUDE\IOSFWD
D:\VISUAL STUDIO 2013\VC\INCLUDE\CSTDIO
D:\VISUAL STUDIO 2013\VC\INCLUDE\STDIO.H
D:\VISUAL STUDIO 2013\VC\INCLUDE\CSTRING
D:\VISUAL STUDIO 2013\VC\INCLUDE\CRTDBG.H
D:\VISUAL STUDIO 2013\VC\INCLUDE\TYPE_TRAITS
D:\VISUAL STUDIO 2013\VC\INCLUDE\XREFWRAP
D:\VISUAL STUDIO 2013\VC\INCLUDE\XATOMIC0.H
D:\VISUAL STUDIO 2013\VC\INCLUDE\INTRIN.H
D:\VISUAL STUDIO 2013\VC\INCLUDE\SETJMP.H
D:\VISUAL STUDIO 2013\VC\INCLUDE\IMMINTRIN.H
D:\VISUAL STUDIO 2013\VC\INCLUDE\WMMINTRIN.H
D:\VISUAL STUDIO 2013\VC\INCLUDE\NMMINTRIN.H
D:\VISUAL STUDIO 2013\VC\INCLUDE\SMMINTRIN.H
D:\VISUAL STUDIO 2013\VC\INCLUDE\TMMINTRIN.H
D:\VISUAL STUDIO 2013\VC\INCLUDE\PMMINTRIN.H
D:\VISUAL STUDIO 2013\VC\INCLUDE\EMMINTRIN.H
D:\VISUAL STUDIO 2013\VC\INCLUDE\XMMINTRIN.H
D:\VISUAL STUDIO 2013\VC\INCLUDE\MMINTRIN.H
D:\VISUAL STUDIO 2013\VC\INCLUDE\AMMINTRIN.H
D:\VISUAL STUDIO 2013\VC\INCLUDE\MM3DNOW.H
D:\VISUAL STUDIO 2013\VC\INCLUDE\STDEXCEPT
D:\VISUAL STUDIO 2013\VC\INCLUDE\XSTRING
E:\GAMEPROJECT\TECS\TECS\UTILS\INDEXEDBITSET.H
D:\VISUAL STUDIO 2013\VC\INCLUDE\UNORDERED_MAP
D:\VISUAL STUDIO 2013\VC\INCLUDE\XHASH
D:\VISUAL STUDIO 2013\VC\INCLUDE\LIST
D:\VISUAL STUDIO 2013\VC\INCLUDE\TUPLE
E:\GAMEPROJECT\TECS\TECS\WORLD.H
D:\VISUAL STUDIO 2013\VC\INCLUDE\IOSTREAM
D:\VISUAL STUDIO 2013\VC\INCLUDE\ISTREAM
D:\VISUAL STUDIO 2013\VC\INCLUDE\OSTREAM
D:\VISUAL STUDIO 2013\VC\INCLUDE\IOS
D:\VISUAL STUDIO 2013\VC\INCLUDE\XLOCNUM
D:\VISUAL STUDIO 2013\VC\INCLUDE\STREAMBUF
D:\VISUAL STUDIO 2013\VC\INCLUDE\XIOSBASE
D:\VISUAL STUDIO 2013\VC\INCLUDE\XLOCALE
D:\VISUAL STUDIO 2013\VC\INCLUDE\TYPEINFO
D:\VISUAL STUDIO 2013\VC\INCLUDE\XLOCINFO
D:\VISUAL STUDIO 2013\VC\INCLUDE\XLOCINFO.H
D:\VISUAL STUDIO 2013\VC\INCLUDE\CTYPE.H
D:\VISUAL STUDIO 2013\VC\INCLUDE\LOCALE.H
D:\VISUAL STUDIO 2013\VC\INCLUDE\XDEBUG
D:\VISUAL STUDIO 2013\VC\INCLUDE\XFACET
D:\VISUAL STUDIO 2013\VC\INCLUDE\SYSTEM_ERROR
D:\VISUAL STUDIO 2013\VC\INCLUDE\CERRNO
D:\VISUAL STUDIO 2013\VC\INCLUDE\ERRNO.H
D:\VISUAL STUDIO 2013\VC\INCLUDE\SHARE.H
E:\GAMEPROJECT\TECS\TECS\MANAGERS\ENTITYMANAGER.H
E:\GAMEPROJECT\TECS\TECS\MANAGERS\MANAGER.H
E:\GAMEPROJECT\TECS\TECS\ENTITYOBSERVER.H
D:\VISUAL STUDIO 2013\VC\INCLUDE\UNORDERED_SET
D:\VISUAL STUDIO 2013\VC\INCLUDE\MEMORY
D:\VISUAL STUDIO 2013\VC\INCLUDE\STDINT.H
E:\GAMEPROJECT\TECS\TECS\MANAGERS\COMPONENTMANAGER.H
E:\GAMEPROJECT\TECS\TECS\TYPES\TYPE.H
D:\VISUAL STUDIO 2013\VC\INCLUDE\TYPEINDEX
D:\VISUAL STUDIO 2013\VC\INCLUDE\FUNCTIONAL
D:\VISUAL STUDIO 2013\VC\INCLUDE\XFUNCTIONAL
E:\GAMEPROJECT\TECS\TECS\COMPONENT.H
E:\GAMEPROJECT\TECS\TECS\UTILS\POOLER.HPP
E:\GAMEPROJECT\TECS\TECS\UTILS\POOL.HPP
D:\VISUAL STUDIO 2013\VC\INCLUDE\ALGORITHM
E:\GAMEPROJECT\TECS\TECS\MANAGERS\TAGMANAGER.H
D:\VISUAL STUDIO 2013\VC\INCLUDE\STRING
D:\VISUAL STUDIO 2013\VC\INCLUDE\ITERATOR
E:\GAMEPROJECT\TECS\TECS\MANAGERS\GROUPMANAGER.H
E:\GAMEPROJECT\TECS\TECS\SYSTEM.H
E:\GAMEPROJECT\TECS\TECS\ASPECT.H
E:\GAMEPROJECT\TECS\TECS\ENTITY.H
^E:\GAMEPROJECT\TECS\TECS\ASPECT.CPP
E:\GAMEPROJECT\TECS\TECS\ASPECT.H
E:\GAMEPROJECT\TECS\TECS\UTILS\INDEXEDBITSET.H
D:\VISUAL STUDIO 2013\VC\INCLUDE\UNORDERED_MAP
D:\VISUAL STUDIO 2013\VC\INCLUDE\XHASH
D:\VISUAL STUDIO 2013\VC\INCLUDE\CSTRING
D:\VISUAL STUDIO 2013\VC\INCLUDE\YVALS.H
D:\VISUAL STUDIO 2013\VC\INCLUDE\XKEYCHECK.H
D:\VISUAL STUDIO 2013\VC\INCLUDE\CRTDEFS.H
D:\VISUAL STUDIO 2013\VC\INCLUDE\SAL.H
D:\VISUAL STUDIO 2013\VC\INCLUDE\CONCURRENCYSAL.H
D:\VISUAL STUDIO 2013\VC\INCLUDE\VADEFS.H
D:\VISUAL STUDIO 2013\VC\INCLUDE\USE_ANSI.H
D:\VISUAL STUDIO 2013\VC\INCLUDE\STRING.H
D:\VISUAL STUDIO 2013\VC\INCLUDE\CWCHAR
D:\VISUAL STUDIO 2013\VC\INCLUDE\WCHAR.H
D:\VISUAL STUDIO 2013\VC\INCLUDE\SWPRINTF.INL
D:\VISUAL STUDIO 2013\VC\INCLUDE\WTIME.INL
D:\VISUAL STUDIO 2013\VC\INCLUDE\LIST
D:\VISUAL STUDIO 2013\VC\INCLUDE\XMEMORY
D:\VISUAL STUDIO 2013\VC\INCLUDE\XMEMORY0
D:\VISUAL STUDIO 2013\VC\INCLUDE\CSTDLIB
D:\VISUAL STUDIO 2013\VC\INCLUDE\STDLIB.H
D:\VISUAL STUDIO 2013\VC\INCLUDE\LIMITS.H
D:\VISUAL STUDIO 2013\VC\INCLUDE\LIMITS
D:\VISUAL STUDIO 2013\VC\INCLUDE\YMATH.H
D:\VISUAL STUDIO 2013\VC\INCLUDE\CFLOAT
D:\VISUAL STUDIO 2013\VC\INCLUDE\FLOAT.H
D:\VISUAL STUDIO 2013\VC\INCLUDE\CRTWRN.H
D:\VISUAL STUDIO 2013\VC\INCLUDE\CLIMITS
D:\VISUAL STUDIO 2013\VC\INCLUDE\CMATH
D:\VISUAL STUDIO 2013\VC\INCLUDE\MATH.H
D:\VISUAL STUDIO 2013\VC\INCLUDE\XTGMATH.H
D:\VISUAL STUDIO 2013\VC\INCLUDE\XTR1COMMON
D:\VISUAL STUDIO 2013\VC\INCLUDE\XSTDDEF
D:\VISUAL STUDIO 2013\VC\INCLUDE\CSTDDEF
D:\VISUAL STUDIO 2013\VC\INCLUDE\STDDEF.H
D:\VISUAL STUDIO 2013\VC\INCLUDE\INITIALIZER_LIST
D:\VISUAL STUDIO 2013\VC\INCLUDE\NEW
D:\VISUAL STUDIO 2013\VC\INCLUDE\EXCEPTION
D:\VISUAL STUDIO 2013\VC\INCLUDE\EH.H
D:\VISUAL STUDIO 2013\VC\INCLUDE\MALLOC.H
D:\VISUAL STUDIO 2013\VC\INCLUDE\XUTILITY
D:\VISUAL STUDIO 2013\VC\INCLUDE\UTILITY
D:\VISUAL STUDIO 2013\VC\INCLUDE\IOSFWD
D:\VISUAL STUDIO 2013\VC\INCLUDE\CSTDIO
D:\VISUAL STUDIO 2013\VC\INCLUDE\STDIO.H
D:\VISUAL STUDIO 2013\VC\INCLUDE\CRTDBG.H
D:\VISUAL STUDIO 2013\VC\INCLUDE\TYPE_TRAITS
D:\VISUAL STUDIO 2013\VC\INCLUDE\XREFWRAP
D:\VISUAL STUDIO 2013\VC\INCLUDE\XATOMIC0.H
D:\VISUAL STUDIO 2013\VC\INCLUDE\INTRIN.H
D:\VISUAL STUDIO 2013\VC\INCLUDE\SETJMP.H
D:\VISUAL STUDIO 2013\VC\INCLUDE\IMMINTRIN.H
D:\VISUAL STUDIO 2013\VC\INCLUDE\WMMINTRIN.H
D:\VISUAL STUDIO 2013\VC\INCLUDE\NMMINTRIN.H
D:\VISUAL STUDIO 2013\VC\INCLUDE\SMMINTRIN.H
D:\VISUAL STUDIO 2013\VC\INCLUDE\TMMINTRIN.H
D:\VISUAL STUDIO 2013\VC\INCLUDE\PMMINTRIN.H
D:\VISUAL STUDIO 2013\VC\INCLUDE\EMMINTRIN.H
D:\VISUAL STUDIO 2013\VC\INCLUDE\XMMINTRIN.H
D:\VISUAL STUDIO 2013\VC\INCLUDE\MMINTRIN.H
D:\VISUAL STUDIO 2013\VC\INCLUDE\AMMINTRIN.H
D:\VISUAL STUDIO 2013\VC\INCLUDE\MM3DNOW.H
D:\VISUAL STUDIO 2013\VC\INCLUDE\STDEXCEPT
D:\VISUAL STUDIO 2013\VC\INCLUDE\XSTRING
D:\VISUAL STUDIO 2013\VC\INCLUDE\VECTOR
D:\VISUAL STUDIO 2013\VC\INCLUDE\TUPLE
E:\GAMEPROJECT\TECS\TECS\TYPES\TYPE.H
D:\VISUAL STUDIO 2013\VC\INCLUDE\IOSTREAM
D:\VISUAL STUDIO 2013\VC\INCLUDE\ISTREAM
D:\VISUAL STUDIO 2013\VC\INCLUDE\OSTREAM
D:\VISUAL STUDIO 2013\VC\INCLUDE\IOS
D:\VISUAL STUDIO 2013\VC\INCLUDE\XLOCNUM
D:\VISUAL STUDIO 2013\VC\INCLUDE\STREAMBUF
D:\VISUAL STUDIO 2013\VC\INCLUDE\XIOSBASE
D:\VISUAL STUDIO 2013\VC\INCLUDE\XLOCALE
D:\VISUAL STUDIO 2013\VC\INCLUDE\TYPEINFO
D:\VISUAL STUDIO 2013\VC\INCLUDE\XLOCINFO
D:\VISUAL STUDIO 2013\VC\INCLUDE\XLOCINFO.H
D:\VISUAL STUDIO 2013\VC\INCLUDE\CTYPE.H
D:\VISUAL STUDIO 2013\VC\INCLUDE\LOCALE.H
D:\VISUAL STUDIO 2013\VC\INCLUDE\XDEBUG
D:\VISUAL STUDIO 2013\VC\INCLUDE\XFACET
D:\VISUAL STUDIO 2013\VC\INCLUDE\SYSTEM_ERROR
D:\VISUAL STUDIO 2013\VC\INCLUDE\CERRNO
D:\VISUAL STUDIO 2013\VC\INCLUDE\ERRNO.H
D:\VISUAL STUDIO 2013\VC\INCLUDE\SHARE.H
D:\VISUAL STUDIO 2013\VC\INCLUDE\TYPEINDEX
D:\VISUAL STUDIO 2013\VC\INCLUDE\FUNCTIONAL
D:\VISUAL STUDIO 2013\VC\INCLUDE\XFUNCTIONAL
E:\GAMEPROJECT\TECS\TECS\COMPONENT.H
D:\VISUAL STUDIO 2013\VC\INCLUDE\MEMORY
D:\VISUAL STUDIO 2013\VC\INCLUDE\STDINT.H
