^E:\GAMEPROJECT\TECS\TECS\ASPECT.CPP|E:\GAMEPROJECT\TECS\TECS\COMPONENTMAPPER.CPP|E:\GAMEPROJECT\TECS\TECS\ENTITY.CPP|E:\GAMEPROJECT\TECS\TECS\MAIN.CPP|E:\GAMEPROJECT\TECS\TECS\MANAGERS\COMPONENTMANAGER.CPP|E:\GAMEPROJECT\TECS\TECS\MANAGERS\ENTITYMANAGER.CPP|E:\GAMEPROJECT\TECS\TECS\MANAGERS\GROUPMANAGER.CPP|E:\GAMEPROJECT\TECS\TECS\MANAGERS\TAGMANAGER.CPP|E:\GAMEPROJECT\TECS\TECS\SYSTEM.CPP|E:\GAMEPROJECT\TECS\TECS\WORLD.CPP
E:\GAMEPROJECT\TECS\TECS\DEBUG\VC120.PDB
E:\GAMEPROJECT\TECS\TECS\DEBUG\VC120.IDB
E:\GAMEPROJECT\TECS\TECS\DEBUG\ASPECT.OBJ
E:\GAMEPROJECT\TECS\TECS\DEBUG\COMPONENTMAPPER.OBJ
E:\GAMEPROJECT\TECS\TECS\DEBUG\MAIN.OBJ
E:\GAMEPROJECT\TECS\TECS\DEBUG\COMPONENTMANAGER.OBJ
E:\GAMEPROJECT\TECS\TECS\DEBUG\GROUPMANAGER.OBJ
E:\GAMEPROJECT\TECS\TECS\DEBUG\TAGMANAGER.OBJ
E:\GAMEPROJECT\TECS\TECS\DEBUG\SYSTEM.OBJ
E:\GAMEPROJECT\TECS\TECS\DEBUG\ENTITY.OBJ
E:\GAMEPROJECT\TECS\TECS\DEBUG\ENTITYMANAGER.OBJ
E:\GAMEPROJECT\TECS\TECS\DEBUG\WORLD.OBJ
^E:\GAMEPROJECT\TECS\TECS\ASPECT.CPP
E:\GAMEPROJECT\TECS\TECS\DEBUG\VC120.PDB
^E:\GAMEPROJECT\TECS\TECS\COMPONENTMAPPER.CPP
E:\GAMEPROJECT\TECS\TECS\DEBUG\VC120.PDB
^E:\GAMEPROJECT\TECS\TECS\MAIN.CPP
E:\GAMEPROJECT\TECS\TECS\DEBUG\VC120.PDB
^E:\GAMEPROJECT\TECS\TECS\MANAGERS\COMPONENTMANAGER.CPP
E:\GAMEPROJECT\TECS\TECS\DEBUG\VC120.PDB
^E:\GAMEPROJECT\TECS\TECS\MANAGERS\GROUPMANAGER.CPP
E:\GAMEPROJECT\TECS\TECS\DEBUG\VC120.PDB
^E:\GAMEPROJECT\TECS\TECS\MANAGERS\TAGMANAGER.CPP
E:\GAMEPROJECT\TECS\TECS\DEBUG\VC120.PDB
^E:\GAMEPROJECT\TECS\TECS\SYSTEM.CPP
E:\GAMEPROJECT\TECS\TECS\DEBUG\VC120.PDB
^E:\GAMEPROJECT\TECS\TECS\ENTITY.CPP
E:\GAMEPROJECT\TECS\TECS\DEBUG\VC120.PDB
^E:\GAMEPROJECT\TECS\TECS\MANAGERS\ENTITYMANAGER.CPP
E:\GAMEPROJECT\TECS\TECS\DEBUG\VC120.PDB
^E:\GAMEPROJECT\TECS\TECS\WORLD.CPP
E:\GAMEPROJECT\TECS\TECS\DEBUG\VC120.PDB
